…
Since the question asked for a column for the life expectancy of each country, I used the spread function to 'spread' the values of life expectancy into the different country columns that my function call created.

Once I produced my table , I proceeded to try and graph my results. Lets analyze what I got.

``` r
#Was trying to use gather incorrectly. Now trying spread!
gapminder_wide_form <- gapminder %>% 
  filter(country == 'Sri Lanka' | country == 'India') %>%  # , 'Pakistan', 'Bangladesh'
  select(year, country ,lifeExp, pop) %>% 
  spread(key = country, value = lifeExp, fill = 0) 
gapminder_wide_form
```

    ## # A tibble: 24 × 4
    ##     year       pop  India `Sri Lanka`
    ## *  <int>     <int>  <dbl>       <dbl>
    ## 1   1952   7982342  0.000      57.593
    ## 2   1952 372000000 37.373       0.000
    ## 3   1957   9128546  0.000      61.456
    ## 4   1957 409000000 40.249       0.000
    ## 5   1962  10421936  0.000      62.192
    ## 6   1962 454000000 43.605       0.000
    ## 7   1967  11737396  0.000      64.266
    ## 8   1967 506000000 47.193       0.000
    ## 9   1972  13016733  0.000      65.042
    ## 10  1972 567000000 50.651       0.000
    ## # ... with 14 more rows
…
